<br><font color='#9932CC'>================================================</br></font>
<br><font color='#FF1493'>⋆ ⋆ ⋆ ⋆ ⋆ ⋆ ⋆ ⋆⋆⋆⋆ PREMIUM SERVER ⋆⋆⋆⋆ ⋆ ⋆ ⋆ ⋆ ⋆ ⋆ ⋆</br></font>
<br></br>
<br><font color='#FF0000'>⋆ ⋆ ⋆ ⋆ ⋆ ⋆⋆⋆ W ⋆ A ⋆ R ⋆ N ⋆ I ⋆ N ⋆ G ⋆⋆⋆ ⋆ ⋆ ⋆ ⋆</br></font>
<br></br>
<br><font color='#860000'>ɴᴏ ꜱᴘᴀᴍ !!!</br></font>
<br><font color='#1E90FF'>ɴᴏ ᴅᴅᴏꜱ !!!</br></font>
<br><font color='#FF0000'>ɴᴏ ʜᴀᴄᴋɪɴɢ !!!</br></font>
<br><font color='#008080'>ɴᴏ ᴄᴀʀᴅɪɴɢ !!!</br></font>
<br><font color='#BA55D3'>ɴᴏ ᴍᴜʟᴛɪ-ʟᴏɢɪɴ !!!</br></font>
<br><font color='#32CD32'>ɴᴏ ᴄʜɪʟᴅ ᴘᴏʀɴᴏɢʀᴀᴘʜʏ !!!</br></font>
<br></br>
<br><font color='#FF8C00'>⋆ғᴏʟʟᴏᴡ ᴛʜᴇ ʀᴜʟᴇꜱ ᴏʀ ʏᴏᴜʀ ᴀᴄᴄᴏᴜɴᴛ ᴡɪʟʟ ʙᴇ ʙᴀɴɴᴇᴅ⋆</br></font>
<br></br>
<br></br>
<br><font color='#FF6347'>✧✧ ⋆ ⋆ ☛ SERVER OWNED BY : P R I V A C Y ☚ ⋆ ⋆ ✧✧</br></font>
<br><font color='#9932CC'>================================================</br></font>